{
  "main": {
    "id": "8e0b00042b1a845f",
    "type": "split",
    "children": [
      {
        "id": "4ea07329a5e63bd1",
        "type": "tabs",
        "children": [
          {
            "id": "1b6f4d4e4f817d8b",
            "type": "leaf",
            "state": {
              "type": "markdown",
              "state": {
                "file": "2. Compiling and Debugging Modules/4. Debugging in the Kernel.md",
                "mode": "source",
                "source": false
              }
            }
          }
        ]
      }
    ],
    "direction": "vertical"
  },
  "left": {
    "id": "085a15b05bda3284",
    "type": "split",
    "children": [
      {
        "id": "f1bc79536a4ded58",
        "type": "tabs",
        "children": [
          {
            "id": "44ea342a08056569",
            "type": "leaf",
            "state": {
              "type": "file-explorer",
              "state": {
                "sortOrder": "alphabetical"
              }
            }
          },
          {
            "id": "9a9a356aec23bdcf",
            "type": "leaf",
            "state": {
              "type": "search",
              "state": {
                "query": "20240626205610",
                "matchingCase": false,
                "explainSearch": false,
                "collapseAll": false,
                "extraContext": false,
                "sortOrder": "alphabetical"
              }
            }
          },
          {
            "id": "7e5eac8b28e7fdf5",
            "type": "leaf",
            "state": {
              "type": "bookmarks",
              "state": {}
            }
          }
        ]
      }
    ],
    "direction": "horizontal",
    "width": 300
  },
  "right": {
    "id": "11eafed4a152a322",
    "type": "split",
    "children": [
      {
        "id": "0f98372eb25745d7",
        "type": "tabs",
        "children": [
          {
            "id": "ad3d49f34ce01118",
            "type": "leaf",
            "state": {
              "type": "backlink",
              "state": {
                "file": "2. Compiling and Debugging Modules/4. Debugging in the Kernel.md",
                "collapseAll": false,
                "extraContext": false,
                "sortOrder": "alphabetical",
                "showSearch": false,
                "searchQuery": "",
                "backlinkCollapsed": false,
                "unlinkedCollapsed": true
              }
            }
          },
          {
            "id": "3ad7d0b3839943e5",
            "type": "leaf",
            "state": {
              "type": "outgoing-link",
              "state": {
                "file": "2. Compiling and Debugging Modules/4. Debugging in the Kernel.md",
                "linksCollapsed": false,
                "unlinkedCollapsed": true
              }
            }
          },
          {
            "id": "f42566235ab7ad37",
            "type": "leaf",
            "state": {
              "type": "tag",
              "state": {
                "sortOrder": "frequency",
                "useHierarchy": true
              }
            }
          },
          {
            "id": "1f07eb8b2f87a485",
            "type": "leaf",
            "state": {
              "type": "outline",
              "state": {
                "file": "2. Compiling and Debugging Modules/4. Debugging in the Kernel.md"
              }
            }
          }
        ],
        "currentTab": 3
      }
    ],
    "direction": "horizontal",
    "width": 300,
    "collapsed": true
  },
  "left-ribbon": {
    "hiddenItems": {
      "switcher:Open quick switcher": false,
      "graph:Open graph view": false,
      "canvas:Create new canvas": false,
      "daily-notes:Open today's daily note": false,
      "templates:Insert template": false,
      "command-palette:Open command palette": false
    }
  },
  "active": "1b6f4d4e4f817d8b",
  "lastOpenFiles": [
    "Pasted image 20240626205546.png",
    "2. Compiling and Debugging Modules/4. Debugging in the Kernel.md",
    "Pasted image 20240626222551.png",
    "2. Compiling and Debugging Modules/Images/debug-file-system.png",
    "3. Character Device Drivers/1. Using and Creating Device Files.md",
    "3. Character Device Drivers/Images/device-file-systems.png",
    "2. Compiling and Debugging Modules/Images/cpu-walk-example.png",
    "3. Character Device Drivers/2. Implementing Device Driver File Operations.md",
    "2. Compiling and Debugging Modules/2. Building a Loadable Module.md",
    "2. Compiling and Debugging Modules/3. Tracing in the Kernel.md",
    "2. Compiling and Debugging Modules/1. Writing a Loadable Module.md",
    "1. How Loadable Kernel Modules Work/4. Loadable Modules and Licensing.md",
    "1. How Loadable Kernel Modules Work/3. Configuration and Parameters.md",
    "1. How Loadable Kernel Modules Work/2. Loadable Module Commands.md",
    "3. Character Device Drivers/Images/file-table-and-objects-graph.png",
    "2. Compiling and Debugging Modules/Images/tracer-function-graph.png",
    "4. Block Device Drivers/3. Block Driver Operations.md",
    "3. Character Device Drivers/Images",
    "1. How Loadable Kernel Modules Work/1. Kernel Modules.md",
    "4. Block Device Drivers/2. The Block Layer.md",
    "4. Block Device Drivers/1. Using Block Device Drivers.md",
    "4. Block Device Drivers/Image/block-driver-ioctl.png",
    "3. Character Device Drivers/Images/tracing-file-system.png",
    "Pasted image 20240626205451.png",
    "5. Network Device Drivers/2. Network Device Operations.md",
    "5. Network Device Drivers/1. Role of Network Device Drivers.md",
    "4. Block Device Drivers/4. Block Request Queues.md",
    "5. Network Device Drivers",
    "4. Block Device Drivers/Image",
    "3. Character Device Drivers/3. Writing a Character Device Driver.md",
    "4. Block Device Drivers",
    "3. Character Device Drivers/4. Understanding User and Kernel Space.md",
    "1. How Loadable Kernel Modules Work/Excersies.md",
    "3. Device Drivers/Exercises/chardriver.c",
    "3. Device Drivers/Exercises/chardriver.answer.c",
    "3. Device Drivers/Exercises/chardriver.answer,'c",
    "3. Device Drivers/Exercises/Makefile",
    "3. Device Drivers/Exercises",
    "Device Drivers/4. Understanding User and Kernel Space.md",
    "3. Device Drivers/Exercise/ramdisk.docx",
    "Device Drivers/3. Writing a Character Device Driver.md",
    "Device Drivers/2. Implementing Device Driver File Operations.md",
    "Device Drivers/1. Using and Creating Device Files.md"
  ]
}